// 20191120134801
// https://api.themoviedb.org/3/movie/top_rated?api_key=f115f7077bf79f6f7fd3227c5ba7f281&page=1&language=ko-KR

{
    "page": 1,
    "total_results": 6633,
    "total_pages": 332,
    "results": [{
            "popularity": 15.176,
            "vote_count": 2151,
            "video": false,
            "poster_path": "/2CAL2433ZeIihfX1Hb2139CX0pW.jpg",
            "id": 19404,
            "adult": false,
            "backdrop_path": "/pVGzV02qmHVoKx9ehBNy7m2u5fs.jpg",
            "original_language": "hi",
            "original_title": "दिलवाले दुल्हनिया ले जायेंगे",
            "genre_ids": [
                35,
                18,
                10749
            ],
            "title": "용감한 자가 신부를 데려가리",
            "vote_average": 8.9,
            "overview": "영국에서 유학중인 라즈(샤룩 칸)와 인도 처녀 심란(까졸).  심란은 부모님이 정해주신 약혼자가 있는데 약혼을 앞두고 친구들과 유럽 여행을 떠나게 된다.  여행 중 우연히 만남 샤룩과 까졸. 두 남녀의 연속된 우연과 좌충우돌 사랑 만들기.  그렇게 사랑하게 된 그들이지만 까졸은 약혼자가 있는 몸. 인도로 돌아가게 된다.  샤룩 또한 그녀를 못 잊어 인도로 뒤 따라 들어가지만 엄격한 까졸의 부모를 설득하기가 힘이 든다. 도망가자는 까졸의 제안을 거부하고 샤룩은 끝내 그녀의 부모님의 허락을 얻어 내기 위해 고군분투한다.",
            "release_date": "1995-10-20"
        },
        {
            "popularity": 43.538,
            "vote_count": 14275,
            "video": false,
            "poster_path": "/iZdih9zQAqxNadp0ScHyYRXsXLf.jpg",
            "id": 278,
            "adult": false,
            "backdrop_path": "/j9XKiZrVeViAixVRzCta7h1VU9W.jpg",
            "original_language": "en",
            "original_title": "The Shawshank Redemption",
            "genre_ids": [
                80,
                18
            ],
            "title": "쇼생크 탈출",
            "vote_average": 8.7,
            "overview": "촉망받는 은행 간부 앤디 듀프레인(팀 로빈슨)은 아내와 그녀의 정부를 살해했다는 누명을 쓴다. 주변의 증언과 살해 현장의 그럴듯한 증거들로 그는 종신형을 선고받고 악질범들만 수용한다는 지옥같은 교도소 쇼생크로 향한다. 인간 말종 쓰레기들만 모인 그곳에서 그는 이루 말할 수 없는 억압과 짐승보다 못한 취급을 당한다. 그러던 어느 날, 간수의 세금을 면제받게 해 준 덕분에 그는 일약 교도소의 비공식 회계사로 일하게 된다. 그 와중에 교도소 소장은 죄수들을 이리저리 부리면서 검은 돈을 긁어 모으고 앤디는 이 돈을 세탁하여 불려주면서 그의 돈을 관리하는데...",
            "release_date": "1994-09-23"
        },
        {
            "popularity": 31.463,
            "vote_count": 10923,
            "video": false,
            "poster_path": "/cOwVs8eYA4G9ZQs7hIRSoiZr46Q.jpg",
            "id": 238,
            "adult": false,
            "backdrop_path": "/6xKCYgH16UuwEGAyroLU6p8HLIn.jpg",
            "original_language": "en",
            "original_title": "The Godfather",
            "genre_ids": [
                80,
                18
            ],
            "title": "대부",
            "vote_average": 8.6,
            "overview": "시실리에서 이민온 뒤, 정치권까지 영향력을 미치는 거물로 자리잡은 돈 꼴레오네는 갖가지 고민을 호소하는 사람들의 문제를 해결해주며 대부라 불리운다. 한편 솔로소라는 인물은 꼴레오네가와 라이벌인 탓타리아 패밀리와 손잡고 새로운 마약 사업을 제안한다. 돈 꼴레오네가 마약 사업에 참여하지 않기로 하자, 돈 꼴레오네를 저격해 그는 중상을 입고 사경을 헤매게 된다. 그 뒤, 돈 꼴레오네의 아들 소니는 조직력을 총 동원해 다른 패밀리들과 피를 부르는 전쟁을 시작하는데... 가족의 사업과 상관없이 대학에 진학한 뒤 인텔리로 지내왔던 막내 아들 마이클은 아버지가 총격을 당한 뒤, 아버지를 구하기 위해 위험천만한 협상 자리에 나선다.",
            "release_date": "1972-03-14"
        },
        {
            "popularity": 26.311,
            "id": 424,
            "video": false,
            "vote_count": 8740,
            "vote_average": 8.6,
            "title": "쉰들러 리스트",
            "release_date": "1993-11-30",
            "original_language": "en",
            "original_title": "Schindler's List",
            "genre_ids": [
                18,
                36,
                10752
            ],
            "backdrop_path": "/cTNYRUTXkBgPH3wP3kmPUB5U6dA.jpg",
            "adult": false,
            "overview": "2차 세계대전 당시 독일군이 점령한 폴란드. 시류에 맞춰 자신의 성공을 추구하는 기회주의자 쉰들러는 유태인이 경영하는 그릇 공장을 인수한다. 그는 공장을 인수하기 위해 나찌 당원이 되고 독일군에게 뇌물을 바치는 등 갖은 방법을 동원한다. 그러나 냉혹한 기회주의자였던 쉰들러는 유태인 회계사인 스턴과 친분을 맺으면서 냉혹한 유태인 학살에 대한 양심의 소리를 듣기 시작한다. 마침내 그는 강제 수용소로 끌려가 죽음을 맞게될 유태인들을 구해내기로 결심하고, 독일군 장교에게 빼내는 사람 숫자대로 뇌물을 주는 방법으로 유태인들을 구해내려는 계획을 세우는데...",
            "poster_path": "/oyyUcGwLX7LTFS1pQbLrQpyzIyt.jpg"
        },
        {
            "popularity": 22.454,
            "vote_count": 4666,
            "video": false,
            "poster_path": "/f5raQarrGOL9hXfvNgnG6RsK6jt.jpg",
            "id": 372058,
            "adult": false,
            "backdrop_path": "/7OMAfDJikBxItZBIug0NJig5DHD.jpg",
            "original_language": "ja",
            "original_title": "君の名は。",
            "genre_ids": [
                16,
                18,
                10749
            ],
            "title": "너의 이름은.",
            "vote_average": 8.5,
            "overview": "시골에 사는 소녀 미츠하(가미시라이시 모네)는 어느 날 잠에서 깬 후 자신의 몸이 남자로 바뀐 걸 알게 된다. 같은 시간, 도쿄에 사는 소년 타키(가미키 류노스케) 역시 이 기이한 상황을 겪고 있다. 낯선 가족, 낯선 친구들, 낯선 풍경들... 서로에게 이어진 끈을 알게 된 둘은 둘만의 규칙을 정하고 점차 상황을 받아들이기 시작한다. 서로에게 남긴 메모를 확인하며  점점 친구가 되어가는 타키와 미츠하. 언제부턴가 더 이상 몸이 바뀌지 않자  자신들이 특별하게 이어져있었음을 깨달은  타키는 미츠하를 만나러 가는데...",
            "release_date": "2016-08-26"
        },
        {
            "popularity": 61.276,
            "id": 496243,
            "video": false,
            "vote_count": 1350,
            "vote_average": 8.5,
            "title": "기생충",
            "release_date": "2019-05-30",
            "original_language": "ko",
            "original_title": "기생충",
            "genre_ids": [
                53,
                18,
                35
            ],
            "backdrop_path": "/TU9NIjwzjoKPwQHoHshkFcQUCG.jpg",
            "adult": false,
            "overview": "전원 백수로 살 길 막막하지만 사이는 좋은 기택(송강호) 가족. 장남 기우(최우식)에게 명문대생 친구가 연결시켜 준 고액 과외 자리는 모처럼 싹튼 고정수입의 희망이다. 온 가족의 도움과 기대 속에 박 사장(이선균) 집으로 향하는 기우. 글로벌 IT기업의 CEO인 박 사장의 저택에 도착하자 젊고 아름다운 사모님 연교(조여정)와 가정부 충숙(장혜진)이 기우를 맞이한다. 큰 문제 없이 박 사장의 딸 다혜(정지소)의 과외를 시작한 기우. 그러나 이렇게 시작된 두 가족의 만남 뒤로, 걷잡을 수 없는 사건이 기다리고 있는데...",
            "poster_path": "/tcmj4YQ6p79OD8ECpRAbV8Yjk0c.jpg"
        },
        {
            "popularity": 22.465,
            "vote_count": 6427,
            "video": false,
            "poster_path": "/cj9UsJEN5bNf6ZoF1BbKjKN81hc.jpg",
            "id": 240,
            "adult": false,
            "backdrop_path": "/gLbBRyS7MBrmVUNce91Hmx9vzqI.jpg",
            "original_language": "en",
            "original_title": "The Godfather: Part II",
            "genre_ids": [
                80,
                18
            ],
            "title": "대부 2",
            "vote_average": 8.5,
            "overview": "아버지의 장례식 도중에 맏아들 파올로가 총에 맞아 죽고, 비토(로버트 드니로)는 겨우 도망쳐 미국으로 건너온다. 대부로 성장한 후 비토는 다시 치치오를 찾아 복수를 한다. 새롭게 등장한 젊은 대부 마이클(알 파치노)은 본거지를 라스베가스로 옮기고 가족의 사업을 가능한 합법적인 것으로 바꾸려고 애쓴다. 그런 과중 중에 자신을 제거하려는 음모를 알게되고 그는 냉혹하고 신속하게 반대파들을 제거, 조직을 더욱 확대해 나간다. 이를 위해 마이클은 배신한 형마저 죽이고, 일 때문에 아내와 헤어지는 등 인간적으로는 계속 외로워져 가는데...",
            "release_date": "1974-12-20"
        },
        {
            "popularity": 27.812,
            "vote_count": 8081,
            "video": false,
            "poster_path": "/mD49waY0XR7HNrS13r63tfgYT08.jpg",
            "id": 129,
            "adult": false,
            "backdrop_path": "/mnpRKVSXBX6jb56nabvmGKA0Wig.jpg",
            "original_language": "ja",
            "original_title": "千と千尋の神隠し",
            "genre_ids": [
                16,
                14,
                10751
            ],
            "title": "센과 치히로의 행방불명",
            "vote_average": 8.5,
            "overview": "평범한 열 살 짜리 소녀 치히로 식구는 이사 가던 중 길을 잘못 들어 낡은 터널을 지나가게 된다. 터널 저편엔 폐허가 된 놀이공원이 있었고 그곳엔 이상한 기운이 흘렀다. 인기척 하나 없는 이 마을의 낯선 분위기에 불길한 기운을 느낀 치히로는 부모님에게 돌아가자고 조르지만 부모님은 호기심에 들떠 마을 곳곳을 돌아다니기 시작한다. 어느 음식점에 도착한 치히로의 부모님은 그 곳에 차려진 음식들을 보고 즐거워하며 허겁지겁 먹어대다가 돼지로 변해버린다. 겁에 질려 당황하는 치히로에게 낯선 소년 하쿠가 나타나 빨리 이곳을 나가라고 소리치는데...",
            "release_date": "2001-07-20"
        },
        {
            "popularity": 21.095,
            "vote_count": 9054,
            "video": false,
            "poster_path": "/sOHqdY1RnSn6kcfAHKu28jvTebE.jpg",
            "id": 497,
            "adult": false,
            "backdrop_path": "/Rlt20sEbOQKPVjia7lUilFm49W.jpg",
            "original_language": "en",
            "original_title": "The Green Mile",
            "genre_ids": [
                80,
                18,
                14
            ],
            "title": "그린 마일",
            "vote_average": 8.5,
            "overview": "미국 루이지애나의 콜드 마운틴 교도소. 폴은 사형수 감방의 간수장으로 일하고 있다. 그의 일은 사형수들을 감독하고, 그린 마일이라 불리는 초록색 복도를 거쳐 그들을 사형 집행장까지 안내하는 것. 폴은 그들이 죽음을 맞이하는 순간까지 평화롭게 지낼 수 있도록 최선을 다한다. 어느 날 존 커피라는 사형수가 이송되어 온다. 그는 쌍둥이 여자아이를 살해한 흉악범. 하지만 순진한 눈망울에 겁을 잔뜩 집어먹은 그의 모습에 폴은 당혹감을 느낀다. 게다가 그는 초자연적 능력으로 폴의 지병을 깨끗하게 치료해주기까지 한다. 존을 전기 의자로 데려가야 할 날이 다가오면서 폴은 그가 무죄라는 확신을 갖게 되는데...",
            "release_date": "1999-12-10"
        },
        {
            "popularity": 36.529,
            "vote_count": 16670,
            "video": false,
            "poster_path": "/6lXRHGoEbnnBUKsuqpL9JxD4DzT.jpg",
            "id": 680,
            "adult": false,
            "backdrop_path": "/4cDFJr4HnXN5AdPw4AKrmLlMWdO.jpg",
            "original_language": "en",
            "original_title": "Pulp Fiction",
            "genre_ids": [
                80,
                53
            ],
            "title": "펄프 픽션",
            "vote_average": 8.5,
            "overview": "펌프킨(팀 로스)와 허니 버니(아만다 플러머)가 레스토랑에서 강도 행각을 벌이기 시작한다. 빈센트(존 트라볼타)와 그 동료 쥴스(사무엘 L 잭슨)는 두목의 금가방을 찾기 위해 다른 건달이 사는 아파트를 찾아간다. 마르셀러스(빙 라메스)는 부치(브루스 윌리스)에게 돈을 주며 상대 선수에게 져 주라고 하지만 부치는 상대 선수를 때려 눕히고 도망치다, 어릴 때 아버지에게 물려받은 시계를 찾기 위해 아파트로 향한다. 아무런 상관 없이 보이는 이 사건들이 서로 얽히고 섥히면서 예상치 못한 인과관계가 만들어지는데...",
            "release_date": "1994-09-10"
        },
        {
            "popularity": 18.205,
            "vote_count": 7816,
            "video": false,
            "poster_path": "/zypmMXejg6Tmcpqk9qY6WglKarq.jpg",
            "id": 637,
            "adult": false,
            "backdrop_path": "/bORe0eI72D874TMawOOFvqWS6Xe.jpg",
            "original_language": "it",
            "original_title": "La vita è bella",
            "genre_ids": [
                35,
                18
            ],
            "title": "인생은 아름다워",
            "vote_average": 8.5,
            "overview": "로마에 갓 상경한 시골 총각 귀도는 운명처럼 만난 여인 도라에게 첫눈에 반한다. 넘치는 재치와 유머로 약혼자가 있던 그녀를 사로잡은 귀도는 가정을 꾸리며 분신과도 같은 아들 조수아를 얻는다. 조수아의 다섯 살 생일, 갑작스레 들이닥친 군인들은 귀도와 조수아를 수용소 행 기차에 실어버리고, 소식을 들은 도라 역시 기차에 따라 오른다. 귀도는 아들을 달래기 위해 무자비한 수용소 생활을 단체게임이라 속이고 1,000점을 따는 우승자에게는 진짜 탱크가 주어진다고 말한다. 하루하루가 지나 어느덧 전쟁이 끝났다는 말을 들은 귀도는 조수아를 창고에 숨겨둔 채 아내를 찾아 나서는데...",
            "release_date": "1997-12-20"
        },
        {
            "popularity": 352.867,
            "vote_count": 5688,
            "video": false,
            "poster_path": "/wrCwH6WOvXQvVuqcKNUrLDCDxdw.jpg",
            "id": 475557,
            "adult": false,
            "backdrop_path": "/n6bUvigpRFqSwmPp1m2YADdbRBc.jpg",
            "original_language": "en",
            "original_title": "Joker",
            "genre_ids": [
                80,
                18,
                53
            ],
            "title": "조커",
            "vote_average": 8.4,
            "overview": "홀어머니와 사는 아서 플렉(호아킨 피닉스)은 코미디언을 꿈꾸지만 그의 삶은 좌절과 절망으로 가득 차 있다. 광대 아르바이트는 그에게 모욕을 가져다주기 일쑤고, 긴장하면 웃음을 통제할 수 없는 신경병 증세는 그를 더욱 고립시킨다. 정부 예산 긴축으로 인해 정신과 약물을 지원하던 공공의료 서비스마저 없어져 버린 어느 날, 아서는 지하철에서 시비를 걸어온 증권사 직원들에게 얻어맞던 와중에 동료가 건네준 권총으로 그들을 쏴 버리고 만다. 군중들은 지배계급에 대한 저항의 아이콘이 된 그를 추종하기 시작하며 광대 마스크로 얼굴을 가리고 거리로 쏟아져 나오기 시작하는데...",
            "release_date": "2019-10-02"
        },
        {
            "popularity": 31.035,
            "id": 13,
            "video": false,
            "vote_count": 16134,
            "vote_average": 8.4,
            "title": "포레스트 검프",
            "release_date": "1994-07-06",
            "original_language": "en",
            "original_title": "Forrest Gump",
            "genre_ids": [
                35,
                18,
                10749
            ],
            "backdrop_path": "/wMgbnUVS9wbRGAdki8fqxKU1O0N.jpg",
            "adult": false,
            "overview": "불편한 다리, 남들보다 조금 떨어지는 지능을 가진 포레스트 검프는 헌신적인 어머니의 보살핌과 첫사랑 제니와의 만남으로 편견과 괴롭힘 속에서도 따뜻한 마음을 지니고 성장한다. 또래들의 괴롭힘을 피해 도망치던 포레스트는 누구보다 빠르게 달릴 수 있는 자신의 재능을 깨닫는다. 그의 재능을 알아 본 대학에서 그를 미식축구 선수로 발탁하고, 졸업 후에도 뛰어난 신체능력으로 군에 들어가 무공훈장을 수여받는 등 탄탄한 인생 가도에 오르게 된 포레스트. 하지만 어머니가 병에 걸려 죽음을 맞이하고, 첫사랑 제니 역시 그의 곁을 떠나가며 다시 한 번 인생의 전환점을 맞이하게 되는데...",
            "poster_path": "/85hhHEM3KPgFqaLjRsrRxpx8e9f.jpg"
        },
        {
            "popularity": 43.909,
            "vote_count": 20259,
            "video": false,
            "poster_path": "/dd0B0vwzAjuu5hGAr9GiGNBkreE.jpg",
            "id": 155,
            "adult": false,
            "backdrop_path": "/hqkIcbrOHL86UncnHIsHVcVmzue.jpg",
            "original_language": "en",
            "original_title": "The Dark Knight",
            "genre_ids": [
                28,
                80,
                18,
                53
            ],
            "title": "다크 나이트",
            "vote_average": 8.4,
            "overview": "범죄와 부정부패를 제거하여 고담시를 지키려는 배트맨(크리스찬 베일). 그는 짐 고든 형사(게리 올드만)와 패기 넘치는 고담시 지방 검사 하비 덴트(아론 에크하트)와 함께 도시를 범죄 조직으로부터 영원히 구원하고자 한다. 세 명의 의기투합으로 위기에 처한 악당들이 모인 자리에 보라색 양복을 입고 얼굴에 짙게 화장을 한 괴이한 존재가 나타나 배트맨을 죽이자는 사상 초유의 제안을 한다. 그는 바로 어떠한 룰도, 목적도 없는 사상 최악의 악당 미치광이 살인광대 조커(히스 레저). 배트맨을 죽이고 고담시를 끝장내버리기 위한 조커의 광기 어린 행각에 도시는 혼란에 빠지는데...",
            "release_date": "2008-07-16"
        },
        {
            "popularity": 15.983,
            "vote_count": 2483,
            "video": false,
            "poster_path": "/lQi3dIZpXzQxfpLBHxdBOWBeKsE.jpg",
            "id": 311,
            "adult": false,
            "backdrop_path": "/vnT6HzjLSDrAweHn9xWykb8Ii6T.jpg",
            "original_language": "en",
            "original_title": "Once Upon a Time in America",
            "genre_ids": [
                80,
                18
            ],
            "title": "원스 어폰 어 타임 인 아메리카",
            "vote_average": 8.4,
            "overview": "1921년, 좀도둑질을 일삼던 누들스는 친구들과 함께 밀수품 운반 일을 하며 돈을 벌어들인다. 누들스 무리에 위협을 느낀 벅시는 누들스의 친구를 죽이고, 분노한 누들스는 벅시를 살해한 후 감옥에 들어가게 된다. 1932년, 출소한 누들스는 어린 시절 첫사랑 데보라와 밀주 사업으로 크게 성공한 맥스를 다시 만나지만, 금주법 철폐로 밀주 사업도 위기를 맞는다. 맥스는 누들스에게 연방준비은행을 털 것을 제안하지만 누들스는 거절한다. 1968년, 베일리 재단 파티에 초대 받은 누들스는 재단 창립 기념 사진 속에서 데보라를 발견하고 그녀를 찾아가는데...",
            "release_date": "1984-05-23"
        },
        {
            "popularity": 41.337,
            "vote_count": 14117,
            "video": false,
            "poster_path": "/tAXXuEAKLk2mOEIJzwajJQEnVZu.jpg",
            "id": 122,
            "adult": false,
            "backdrop_path": "/8BPZO0Bf8TeAy8znF43z8soK3ys.jpg",
            "original_language": "en",
            "original_title": "The Lord of the Rings: The Return of the King",
            "genre_ids": [
                28,
                12,
                14
            ],
            "title": "반지의 제왕: 왕의 귀환",
            "vote_average": 8.4,
            "overview": "사우론이 인간들의 마지막 요새인 곤도르를 향해 야욕을 드러내고 있는 한편, 아라곤은 쇠락해가고 있는 곤도르의 재건을 위해 왕위 계승을 신중하게 결정지어야만 하는 상황. 이제 중간대륙의 미래는 그의 어깨에 달려있는 것. 사우론이 이끄는 어둠의 군대와의 마지막 전투를 위해 간달프는 곤도르에 흩어져 있던 병사들을 모으고, 로한의 왕 세오덴에게 도움을 받기도 하지만 사우론의 군대에 비하면 열세를 면치 못한다. 그러나 그들은 중간대륙을 사우론의 야욕으로부터 지키려는 사명감과, 마지막 반지 운반자에게 임무를 끝낼 기회를 주기 위해 어둠의 군대를 향해 돌진하게 되는데...",
            "release_date": "2003-12-01"
        },
        {
            "popularity": 47.475,
            "vote_count": 5663,
            "video": false,
            "poster_path": "/vnWgIIEWAvWKOI65tm6h6VRbyY8.jpg",
            "id": 324857,
            "adult": false,
            "backdrop_path": "/uUiId6cG32JSRI6RyBQSvQtLjz2.jpg",
            "original_language": "en",
            "original_title": "Spider-Man: Into the Spider-Verse",
            "genre_ids": [
                28,
                12,
                16,
                35,
                878
            ],
            "title": "스파이더맨: 뉴 유니버스",
            "vote_average": 8.4,
            "overview": "평범한 10대 마일스 모랄레스는 우연히 방사능 거미에 물려 스파이더맨 능력을 가지게 된다. 혼란스러워하던 마일스는 악당과 싸우고 있는 피터 파커를 마주치게 되고 피터 파커는 마일스가 자신과 같은 능력을 가지고 있음을 직감한다. 여러 개의 평행세계가 존재한다는 것을 알게 된 마일스와 피터 파커는 이후 스파이더우먼 스파이더 그웬, 스파이더맨 누아르, 스파이더햄 등 평행세계 속 공존하는 모든 스파이더맨들을 만나게 되는데... 하나의 유니버스에서 만나 팀을 결성한 스파이더맨들은 과연 세계를 구할 수 있을까?",
            "release_date": "2018-12-06"
        },
        {
            "popularity": 25.741,
            "vote_count": 6213,
            "video": false,
            "poster_path": "/pwpGfTImTGifEGgLb3s6LRPd4I6.jpg",
            "id": 769,
            "adult": false,
            "backdrop_path": "/sw7mordbZxgITU877yTpZCud90M.jpg",
            "original_language": "en",
            "original_title": "GoodFellas",
            "genre_ids": [
                80,
                18
            ],
            "title": "좋은 친구들",
            "vote_average": 8.4,
            "overview": "아일랜드계 이탈리아인 헨리 힐(레이 리오타)와 토미(조 페시)는 13살에 마피아에 입문해 지미(로버트 드 니로)와 함께 트럭이나 공항 화물을 훔치는 일을 한다. 결혼 후에도 마피아 생활을 계속하는 헨리는 이제 조직에서도 안정된 위치와 경제적 여유를 갖는다.  어느 날 헨리와 지미는 공항터미널 사건을 모의해 현금 6백만 달러라는 엄청한 돈을 훔친다. 이 사건을 은폐하기 위해 혈안이 된 지미는 모의에 참여했던 사람들을 죽이고, 토미는 마피아 조직에 가담했다가 살해당한다. 엎친데 덮친격으로 헨리마저 마약거래로 경찰서에 잡혀 들어가는데...",
            "release_date": "1990-09-12"
        },
        {
            "popularity": 35.106,
            "vote_count": 17493,
            "video": false,
            "poster_path": "/kabpExFv9JLp778w9ZtCtZnWH9N.jpg",
            "id": 550,
            "adult": false,
            "backdrop_path": "/mMZRKb3NVo5ZeSPEIaNW9buLWQ0.jpg",
            "original_language": "en",
            "original_title": "Fight Club",
            "genre_ids": [
                18
            ],
            "title": "파이트 클럽",
            "vote_average": 8.4,
            "overview": "자동차 회사의 리콜 심사관으로 일하는 주인공(에드워드 노튼)은 일상의 무료함과 공허함 속에서 늘 새로운 탈출을 꿈꾼다. 그는 비행기에서 자신을 비누 제조업자라고 소개하는 타일러 더든(브래드 피트)을 만난다. 집에 돌아온 주인공은 아파트가 누군가에 의해 폭파되었음을 발견하고, 타일러에게 도움을 청해 함께 생활하게 된다. 어느 날 밤 타일러는 주인공에게 자신을 때려달라고 부탁한다. 사람은 싸워봐야 진정한 자신을 알 수 있다는 것이다. 결국 이들은 매주 토요일 밤 술집 지하에서 맨주먹으로 격투를 벌이는 파이트 클럽을 결성하기에 이르는데...",
            "release_date": "1999-10-15"
        },
        {
            "popularity": 25.958,
            "vote_count": 5494,
            "video": false,
            "poster_path": "/vC3P8hH4r3I3fHiRFa1kj6yzeaN.jpg",
            "id": 539,
            "adult": false,
            "backdrop_path": "/3md49VBCeqY6MSNyAVY6d5eC6bA.jpg",
            "original_language": "en",
            "original_title": "Psycho",
            "genre_ids": [
                18,
                27,
                53
            ],
            "title": "싸이코",
            "vote_average": 8.4,
            "overview": "마리온 크레인(쟈넷 리)는 그녀의 애인 샘(존 개빈)과 결혼하길 원하지만 샘은 빚을 갚을 때까지 기다리라고 말한다. 그래서 그녀는 자신이 다니고 있는 회사 사장이 은행에 입금하라고 맡긴 돈을 들고 도망친다. 도주 첫날 밤 묵게 된 도로변의 낡은 모텔 주인인 노만 베이츠(앤소니 퍼킨스)는 그녀에게 친절하게 대해주며 자신은 모텔 바로 뒤쪽 저택에서 몸이 불편한 어머니와 함께 살고 있다고 말한다. 잠자리에 들기 전 마리온이 샤워를 하는 도중, 난데없이 검은 형상이 욕실에 나타나고 마리온은 실종된다. 마리온을 찾기 위해 그녀의 언니 릴라(베라 마일즈)와 샘, 그리고 보험회사 측에서 고용한 탐정 등 세 사람이 추적에 나서는데...",
            "release_date": "1960-06-16"
        }
    ]
}